2019-2020 UEFA Champions League Simulation
…
Given the summary of the Bradley-Terry model and its resulting team strengths, it seems that the results were relatively sensitive to positive results for teams in skewed competitions. In other words, in leagues that are typically dominated by a small number of teams (Greece, Czechia), results over and by the top teams in the competitions were “rewarded” more than their counterparts in other “fairer” competitions (England, Spain). Subjectively, clubs like Red Star typically dominant their domestic competition, which means we would expect a high “ability” assignment, like we see in this model.

For the sake of our project, we’ll only focus on the strengths of the clubs competing in the 2019-20 UEFA Champions League group stages. From this, we see the aforementioned Red Star leading in “domestic strength”, along with other dominant teams from smaller nations, like Olympiacos from Greece and Dinamo Zagreb from Croatia. This aligns with our prior assumptions.

# A tibble: 32 × 4
   Home          Country ability  s.e.
   <chr>         <chr>     <dbl> <dbl>
 1 Red Star      " rs"      5.87 1.37 
 2 Olympiacos    " gr"      3.77 1.18 
 3 Dinamo Zagreb " hr"      3.35 0.932
 4 Liverpool     " eng"     3.33 1.12 
 5 Shakhtar      " ua"      3.31 1.15 
 6 Benfica       " pt"      3.13 0.833
 7 Zenit         " ru"      2.83 0.764
 8 Loko Moscow   " ru"      2.66 0.773
 9 Paris S-G     " fr"      2.59 0.680
10 Ajax          " nl"      2.55 0.705
# ℹ 22 more rows
…
More helpers for Markov chain simulations

tourn_out$final_matchups    

# A tibble: 37 × 5
   team1         team2               n total_sims    pct
   <chr>         <chr>           <int>      <int>  <dbl>
 1 Juventus      Liverpool        1641       5000 0.328 
 2 Barcelona     Liverpool        1203       5000 0.241 
 3 Liverpool     Manchester City   587       5000 0.117 
 4 Liverpool     Napoli            270       5000 0.054 
 5 Dortmund      Juventus          241       5000 0.0482
 6 Bayern Munich Liverpool         224       5000 0.0448
 7 Barcelona     Dortmund          188       5000 0.0376
 8 Atalanta      Juventus           80       5000 0.016 
 9 Dortmund      Manchester City    80       5000 0.016 
10 Juventus      RB Leipzig         58       5000 0.0116
# ℹ 27 more rows
…
Introducing Covariates

Fitting Bradley-Terry with Domestic Strength Covariate

Now, we’ll move on from the traditional Bradley-Terry fitting process to fitting our strengths with covariates.

To begin, we’ll normalize our derived domestic strengths for each team so that our model can better fit coefficients to the data, and prepare a data frame such that our Bradley-Terry model can be fit using these domestic strengths. Ideally, we’ll use these strengths to define the probability, \[
\mathbb{P}(\text{team i with domestic strength x beats team j with domestic strength y}) = \frac{1}{1+e^{-1\times(((\lambda_i+x\lambda_0))-(\lambda_j+y\lambda_0))}}
\]

# Normalize strengths
domestic_strength$ability = (domestic_strength$ability-mean(domestic_strength$ability))/sqrt(var(domestic_strength$ability))
domestic_strength

# A tibble: 32 × 4
   Home          Country ability     s.e.
   <chr>         <chr>     <dbl>    <dbl>
 1 Slavia Prague cz       4.98   1455.   
 2 Red Star      rs       1.04      1.37 
 3 Olympiacos    gr       0.982     1.29 
 4 Dinamo Zagreb hr       0.261     0.932
 5 Liverpool     eng      0.253     1.12 
 6 Shakhtar      ua       0.247     1.15 
 7 Benfica       pt       0.194     0.833
 8 Paris S-G     fr       0.0252    0.680
 9 Ajax          nl       0.0147    0.706
10 Barcelona     es       0.0108    0.753
# ℹ 22 more rows
…
